<svg width="20" height="18" viewBox="0 0 20 18" fill="none" xmlns="http://www.w3.org/2000/svg">
<path fill-rule="evenodd" clip-rule="evenodd" d="M19.7725 12.9905C19.6126 12.5898 19.1581 12.3946 18.7574 12.5546C18.3567 12.7145 18.1615 13.169 18.3215 13.5697C18.5248 14.0792 18.4581 14.6609 18.1431 15.1259C17.8278 15.5911 17.3231 15.858 16.7583 15.858H3.24486C2.62881 15.858 2.08174 15.5365 1.78138 14.998C1.48056 14.4586 1.4947 13.8229 1.8192 13.2975L8.57593 2.3579C8.88359 1.85977 9.41652 1.56239 10.0016 1.56239C10.5867 1.56239 11.1196 1.85977 11.4273 2.3579L16.4244 10.4487C16.6511 10.8158 17.1325 10.9296 17.4995 10.7028C17.8666 10.4761 17.9804 9.99475 17.7536 9.62768L12.7564 1.53688C12.1621 0.574532 11.1322 0 10.0016 0C8.87089 0 7.84105 0.574571 7.24667 1.53688L0.489937 12.4765C-0.13647 13.4908 -0.163736 14.7179 0.416929 15.7591C0.997126 16.7993 2.05428 17.4203 3.24486 17.4203H16.7583C17.8497 17.4203 18.8258 16.9034 19.4365 16.0022C20.0426 15.1078 20.1681 13.9819 19.7725 12.9905ZM10.0021 14.3348C10.4335 14.3348 10.7833 13.9851 10.7833 13.5536C10.7833 13.1222 10.4335 12.7725 10.0021 12.7725H10.0017C9.57024 12.7725 9.2207 13.1222 9.2207 13.5536C9.2207 13.9851 9.57063 14.3348 10.0021 14.3348ZM10.7831 5.07805V10.8197C10.7831 11.2512 10.4333 11.6009 10.0019 11.6009C9.57043 11.6009 9.2207 11.2512 9.2207 10.8197V5.07805C9.2207 4.6466 9.57043 4.29688 10.0019 4.29688C10.4333 4.29688 10.7831 4.6466 10.7831 5.07805Z" fill="#F15642"/>
</svg>

