<svg width="14" height="12" viewBox="0 0 14 12" fill="none" xmlns="http://www.w3.org/2000/svg">
<path fill-rule="evenodd" clip-rule="evenodd" d="M3.45581 5.24074C3.79123 5.24074 4.13605 5.29201 4.48087 5.39305C5.32148 5.63923 6.01685 6.19541 6.43907 6.95845C6.86584 7.73017 6.97172 8.62445 6.73748 9.47718C6.34537 10.9036 5.05641 11.9 3.60281 11.9C3.59813 11.9 3.59359 11.8998 3.58892 11.8997L3.58842 11.8997C2.41033 11.8529 1.49482 11.3846 0.867299 10.5076C-0.254105 8.94043 -0.120611 6.45055 0.334647 4.79442C1.1102 1.97152 2.94812 0 4.80396 0C4.91924 0 5.03555 0.00807139 5.14966 0.0239153C5.25466 0.0385634 5.34836 0.0988001 5.40666 0.18908C5.46496 0.279361 5.48185 0.390716 5.45336 0.494748L5.11544 1.72489C5.07638 1.86674 4.95904 1.97212 4.81585 1.99379C3.26974 2.22771 2.4936 4.3049 2.17051 5.50874C2.50564 5.36121 2.93784 5.24074 3.45581 5.24074ZM11.6216 5.39305C12.4622 5.63923 13.1576 6.19541 13.5798 6.9586C14.0064 7.73017 14.1124 8.6246 13.8785 9.47733C13.4864 10.9037 12.1973 11.9001 10.7438 11.9001C10.7388 11.9001 10.7341 11.9 10.7293 11.8998C9.55133 11.8532 8.63567 11.3847 8.0083 10.5079C6.88675 8.94043 7.02024 6.45055 7.47535 4.79442C8.25105 1.97152 10.089 0 11.9448 0C12.0602 0 12.1766 0.00807139 12.2905 0.0239153C12.3957 0.0385634 12.4894 0.0988001 12.5475 0.18908C12.6058 0.279361 12.6227 0.390716 12.5942 0.494748L12.2563 1.72489C12.2171 1.86674 12.0999 1.97212 11.9567 1.99379C10.4104 2.22771 9.6343 4.3049 9.31122 5.50874C9.64635 5.36121 10.0787 5.24074 10.5967 5.24074C10.9319 5.24074 11.2768 5.29201 11.6216 5.39305Z" fill="#C4CAD5"/>
</svg>
